{
    "type": "minecraft:crafting_shaped",
    "pattern": [
        " # ",
        "#O#",
        " # "
    ],
    "key": {
        "O": {
            "item": "minecraft:ender_pearl"
        },
		"#": {
            "item": "minecraft:prismarine_crystals"
        }
    },
    "result": {
        "item": "effortlessbuilding:reach_upgrade1"
    }
}